[0301/154643:WARNING:resource_bundle.cc(269)] locale_file_path.empty()
[0301/154643:ERROR:gpu_info_collector_win.cc(102)] Can't retrieve a valid WinSAT assessment.
[0301/154643:WARNING:resource_bundle.cc(269)] locale_file_path.empty()
